%YAML 1.1
%TAG !u! tag:unity3d.com,2011:
--- !u!1 &6084903256612453936
GameObject:
  m_ObjectHideFlags: 0
  m_CorrespondingSourceObject: {fileID: 0}
  m_PrefabInstance: {fileID: 0}
  m_PrefabAsset: {fileID: 0}
  serializedVersion: 6
  m_Component:
  - component: {fileID: 6084903256612453938}
  - component: {fileID: 6084903256612453937}
  m_Layer: 0
  m_Name: LifeInventory
  m_TagString: Untagged
  m_Icon: {fileID: 0}
  m_NavMeshLayer: 0
  m_StaticEditorFlags: 0
  m_IsActive: 1
--- !u!4 &6084903256612453938
Transform:
  m_ObjectHideFlags: 0
  m_CorrespondingSourceObject: {fileID: 0}
  m_PrefabInstance: {fileID: 0}
  m_PrefabAsset: {fileID: 0}
  m_GameObject: {fileID: 6084903256612453936}
  m_LocalRotation: {x: 0, y: 0, z: 0, w: 1}
  m_LocalPosition: {x: 294.35107, y: 204.82043, z: -23.477356}
  m_LocalScale: {x: 1, y: 1, z: 1}
  m_Children: []
  m_Father: {fileID: 0}
  m_RootOrder: 0
  m_LocalEulerAnglesHint: {x: 0, y: 0, z: 0}
--- !u!114 &6084903256612453937
MonoBehaviour:
  m_ObjectHideFlags: 0
  m_CorrespondingSourceObject: {fileID: 0}
  m_PrefabInstance: {fileID: 0}
  m_PrefabAsset: {fileID: 0}
  m_GameObject: {fileID: 6084903256612453936}
  m_Enabled: 1
  m_EditorHideFlags: 0
  m_Script: {fileID: 11500000, guid: c7c98001787f249eb831bbc4195e190b, type: 3}
  m_Name: 
  m_EditorClassIdentifier: 
  lives:
  - life: {fileID: 11400000, guid: 2b3c5fe25f7e141a0b1cb283cd95008c, type: 2}
    count: 3
  - life: {fileID: 11400000, guid: 90604656ce94b4a17a7859b49f0b4dbb, type: 2}
    count: 2
