%YAML 1.1
%TAG !u! tag:unity3d.com,2011:
--- !u!114 &11400000
MonoBehaviour:
  m_ObjectHideFlags: 0
  m_CorrespondingSourceObject: {fileID: 0}
  m_PrefabInstance: {fileID: 0}
  m_PrefabAsset: {fileID: 0}
  m_GameObject: {fileID: 0}
  m_Enabled: 1
  m_EditorHideFlags: 0
  m_Script: {fileID: 11500000, guid: d7610a3fdacc441b7bf598f5636f593b, type: 3}
  m_Name: Evil Imp
  m_EditorClassIdentifier: 
  title: Evil imp
  sprite: {fileID: 21300000, guid: 693e9ce0ef6b944e488f2f7e768eec3d, type: 3}
  color: {r: 0.944, g: 0.021, b: 0.119, a: 1}
  stories:
  - story:
      title: suffer
      texts:
      - You make people suffer in HELL! HAHAAhahahaAHAHa!!!
      reward:
        life: {fileID: 0}
        count: 0
      audio: {fileID: 0}
    weightChance: 1
  - story:
      title: Muder
      texts:
      - Making people suffer in hell was nice but you wanted to make them suffer on
        earth too. So you decided to reincarne in a human.
      reward:
        life: {fileID: 11400000, guid: eec4e0d2b90c3f24895afc37ee2d83ba, type: 2}
        count: 1
      audio: {fileID: 0}
    weightChance: 1
