%YAML 1.1
%TAG !u! tag:unity3d.com,2011:
--- !u!114 &11400000
MonoBehaviour:
  m_ObjectHideFlags: 0
  m_CorrespondingSourceObject: {fileID: 0}
  m_PrefabInstance: {fileID: 0}
  m_PrefabAsset: {fileID: 0}
  m_GameObject: {fileID: 0}
  m_Enabled: 1
  m_EditorHideFlags: 0
  m_Script: {fileID: 11500000, guid: d7610a3fdacc441b7bf598f5636f593b, type: 3}
  m_Name: Fan
  m_EditorClassIdentifier: 
  title: Fan
  sprite: {fileID: 21300000, guid: adb2e1e538501485e8bca38feadb455f, type: 3}
  color: {r: 0.9716981, g: 0.9716981, b: 0.9716981, a: 1}
  stories:
  - story:
      title: t-shirts
      texts:
      - You bought every T-shirts of your beloved actor!
      reward:
        life: {fileID: 0}
        count: 0
      audio: {fileID: 0}
    weightChance: 1
  - story:
      title: Killer
      texts:
      - Your preferred actor died at the first episode, so you thought it's only right
        to kill the actor. Then you live your last days in jail.
      reward:
        life: {fileID: 11400000, guid: eec4e0d2b90c3f24895afc37ee2d83ba, type: 2}
        count: 2
      audio: {fileID: 0}
    weightChance: 1
  - story:
      title: SerialKiller
      texts:
      - Your fanboyism is uncontrollable, you went to kill all your hero's concurrents.
      reward:
        life: {fileID: 11400000, guid: eec4e0d2b90c3f24895afc37ee2d83ba, type: 2}
        count: 1
      audio: {fileID: 0}
    weightChance: 1
