%YAML 1.1
%TAG !u! tag:unity3d.com,2011:
--- !u!114 &11400000
MonoBehaviour:
  m_ObjectHideFlags: 0
  m_CorrespondingSourceObject: {fileID: 0}
  m_PrefabInstance: {fileID: 0}
  m_PrefabAsset: {fileID: 0}
  m_GameObject: {fileID: 0}
  m_Enabled: 1
  m_EditorHideFlags: 0
  m_Script: {fileID: 11500000, guid: d7610a3fdacc441b7bf598f5636f593b, type: 3}
  m_Name: Police
  m_EditorClassIdentifier: 
  title: Police
  sprite: {fileID: 21300000, guid: bfc5fb82905622e4b8805340250c45fb, type: 3}
  color: {r: 0.0141509175, g: 0.2148126, b: 1, a: 1}
  stories:
  - story:
      title: Kill
      texts:
      - You was a good cop. sadly you got killed in mission.
      reward:
        life: {fileID: 0}
        count: 0
      audio: {fileID: 0}
    weightChance: 1
  - story:
      title: Family
      texts:
      - A stable job of cop, with a stable family, a life well spent.
      reward:
        life: {fileID: 11400000, guid: e2f94a3234955554a9c8813e85d968af, type: 2}
        count: 1
      audio: {fileID: 0}
    weightChance: 1
  - story:
      title: KillWithFamily
      texts:
      - You were a good cop. sadly you got killed in a mission. Your family ends up
        homeless without you.
      reward:
        life: {fileID: 11400000, guid: 0712f5b707e2ea34db7c2e1ea859870b, type: 2}
        count: 2
      audio: {fileID: 0}
    weightChance: 1
