%YAML 1.1
%TAG !u! tag:unity3d.com,2011:
--- !u!114 &11400000
MonoBehaviour:
  m_ObjectHideFlags: 0
  m_CorrespondingSourceObject: {fileID: 0}
  m_PrefabInstance: {fileID: 0}
  m_PrefabAsset: {fileID: 0}
  m_GameObject: {fileID: 0}
  m_Enabled: 1
  m_EditorHideFlags: 0
  m_Script: {fileID: 11500000, guid: d7610a3fdacc441b7bf598f5636f593b, type: 3}
  m_Name: Volunteer
  m_EditorClassIdentifier: 
  title: Volunteer
  sprite: {fileID: 21300000, guid: 81a980388191f43059c297064eb4b02b, type: 3}
  color: {r: 0.25726503, g: 0.8396226, b: 0, a: 1}
  stories:
  - story:
      title: clean beach
      texts:
      - With friends, you help cleaning the beach, you're glad to help the planet!
      reward:
        life: {fileID: 11400000, guid: 6f435b9f932b54c2f8ed1e99bb6c484e, type: 2}
        count: 1
      audio: {fileID: 0}
    weightChance: 7
  - story:
      title: children
      texts:
      - You feed poor children, they are very happy that you spent your life to help
        them!
      reward:
        life: {fileID: 11400000, guid: 28cb321d9ebb34595aa0a5d759e89253, type: 2}
        count: 1
      audio: {fileID: 0}
    weightChance: 10
