%YAML 1.1
%TAG !u! tag:unity3d.com,2011:
--- !u!114 &11400000
MonoBehaviour:
  m_ObjectHideFlags: 0
  m_CorrespondingSourceObject: {fileID: 0}
  m_PrefabInstance: {fileID: 0}
  m_PrefabAsset: {fileID: 0}
  m_GameObject: {fileID: 0}
  m_Enabled: 1
  m_EditorHideFlags: 0
  m_Script: {fileID: 11500000, guid: d7610a3fdacc441b7bf598f5636f593b, type: 3}
  m_Name: Whale
  m_EditorClassIdentifier: 
  title: Whale
  sprite: {fileID: 21300000, guid: cdb974d78c6294c19bd4900d7034e9df, type: 3}
  color: {r: 0.16470587, g: 0.37054217, b: 1, a: 1}
  stories:
  - story:
      title: death beach
      texts:
      - MUUUUUUH, as a whale, you end up dying on a beach.
      reward:
        life: {fileID: 0}
        count: 0
      audio: {fileID: 0}
    weightChance: 1
  - story:
      title: fisherman
      texts:
      - You encounter a fisherman, he becomes your friend for ALL YOUR LIFE!
      reward:
        life: {fileID: 11400000, guid: 13d83488b531c4eb0bbe6c90bc954c85, type: 2}
        count: 1
      audio: {fileID: 0}
    weightChance: 2
